Library\Bee\artifacts\mvdfrm\Unity.EditorCoroutines.Editor.ref.dll_1315E0A407C70415.mvfrm
Library\Bee\artifacts\mvdfrm\Unity.InputSystem.ref.dll_7B1D397D2193763B.mvfrm
Library\Bee\artifacts\mvdfrm\Unity.Performance.Profile-Analyzer.Editor.ref.dll_8B44F821019897E5.mvfrm
Library\Bee\artifacts\mvdfrm\Unity.PlasticSCM.Editor.ref.dll_A558B9E65539D7D0.mvfrm
Library\Bee\artifacts\mvdfrm\Unity.Rider.Editor.ref.dll_DA88E6A3E9EB6155.mvfrm
Library\Bee\artifacts\mvdfrm\Unity.Services.Core.Analytics.ref.dll_CBCA382B387CF7F9.mvfrm
Library\Bee\artifacts\mvdfrm\Unity.Services.Core.Environments.ref.dll_E7BB04DD211B7353.mvfrm
Library\Bee\artifacts\mvdfrm\Unity.Services.Core.ref.dll_8B79153BEDCD5611.mvfrm
Library\Bee\artifacts\mvdfrm\Unity.TestTools.CodeCoverage.Editor.OpenCover.Model.ref.dll_22F664961FC0158D.mvfrm
Library\Bee\artifacts\mvdfrm\Unity.TestTools.CodeCoverage.Editor.OpenCover.Mono.Reflection.ref.dll_39D3266F6029657A.mvfrm
Library\Bee\artifacts\mvdfrm\Unity.TestTools.CodeCoverage.Editor.ref.dll_C6D619E6129B87D3.mvfrm
Library\Bee\artifacts\mvdfrm\Unity.TextMeshPro.Editor.ref.dll_D0BA3615D322EF6C.mvfrm
Library\Bee\artifacts\mvdfrm\Unity.TextMeshPro.ref.dll_02929A3ECA791895.mvfrm
Library\Bee\artifacts\mvdfrm\Unity.Timeline.Editor.ref.dll_17F688653313AA4C.mvfrm
Library\Bee\artifacts\mvdfrm\Unity.Timeline.ref.dll_16F8EA6B67022FB5.mvfrm
Library\Bee\artifacts\mvdfrm\Unity.VSCode.Editor.ref.dll_AE868214B5ED3D13.mvfrm
Library\Bee\artifacts\mvdfrm\Unity.VisualScripting.Core.Editor.ref.dll_514B12BC0D1D8DB7.mvfrm
Library\Bee\artifacts\mvdfrm\Unity.VisualScripting.Core.ref.dll_BF8650D11F8E519A.mvfrm
Library\Bee\artifacts\mvdfrm\Unity.VisualScripting.Flow.Editor.ref.dll_CE7BFB6B1BFC18F8.mvfrm
Library\Bee\artifacts\mvdfrm\Unity.VisualScripting.Flow.ref.dll_06973127A197C649.mvfrm
Library\Bee\artifacts\mvdfrm\Unity.VisualScripting.SettingsProvider.Editor.ref.dll_EE1755C0672F8EE2.mvfrm
Library\Bee\artifacts\mvdfrm\Unity.VisualScripting.Shared.Editor.ref.dll_6CA31C4FA5286AB1.mvfrm
Library\Bee\artifacts\mvdfrm\Unity.VisualScripting.State.Editor.ref.dll_DC1879B0E64A8F15.mvfrm
Library\Bee\artifacts\mvdfrm\Unity.VisualScripting.State.ref.dll_900B338E31D9525C.mvfrm
Library\Bee\artifacts\mvdfrm\Unity.VisualStudio.Editor.ref.dll_0FE027DDD6F41767.mvfrm
Library\Bee\artifacts\mvdfrm\Unity.XR.Management.Editor.ref.dll_63D1283B59813AF8.mvfrm
Library\Bee\artifacts\mvdfrm\Unity.XR.Management.ref.dll_B8AA0C3955A88449.mvfrm
Library\Bee\artifacts\mvdfrm\Unity.XR.Oculus.Editor.ref.dll_7B34F9F5328E4DD2.mvfrm
Library\Bee\artifacts\mvdfrm\Unity.XR.Oculus.ref.dll_F7E0CC0D68418BCF.mvfrm
Library\Bee\artifacts\mvdfrm\Unity.XR.OpenXR.Editor.ref.dll_3621FFDAA8DB43B7.mvfrm
Library\Bee\artifacts\mvdfrm\Unity.XR.OpenXR.Features.ConformanceAutomation.ref.dll_F8E9C0BA9435A965.mvfrm
Library\Bee\artifacts\mvdfrm\Unity.XR.OpenXR.Features.OculusQuestSupport.Editor.ref.dll_947714FF8A5EE50E.mvfrm
Library\Bee\artifacts\mvdfrm\Unity.XR.OpenXR.Features.OculusQuestSupport.ref.dll_54D437838FE1B0D3.mvfrm
Library\Bee\artifacts\mvdfrm\Unity.XR.OpenXR.Features.RuntimeDebugger.Editor.ref.dll_CB4BEE4624B29F3F.mvfrm
Library\Bee\artifacts\mvdfrm\Unity.XR.OpenXR.ref.dll_CD391CA4E5ED3B9A.mvfrm
Library\Bee\artifacts\mvdfrm\UnityEditor.SpatialTracking.ref.dll_4005BB3EAE0C01EA.mvfrm
Library\Bee\artifacts\mvdfrm\UnityEditor.UI.ref.dll_0174E068A5FA251B.mvfrm
Library\Bee\artifacts\mvdfrm\UnityEditor.XR.LegacyInputHelpers.ref.dll_A2957EFDA2C64C37.mvfrm
Library\Bee\artifacts\mvdfrm\UnityEngine.SpatialTracking.ref.dll_CC46AD662704850F.mvfrm
Library\Bee\artifacts\mvdfrm\UnityEngine.UI.ref.dll_BDDAB6C3AC1C4D86.mvfrm
Library\Bee\artifacts\mvdfrm\UnityEngine.XR.LegacyInputHelpers.ref.dll_632513B3DE0B9F3C.mvfrm
Library\Bee\artifacts\mvdfrm\UnityEditor.CoreModule.dll_D5CB58587E6815AE.mvfrm
Library\Bee\artifacts\mvdfrm\UnityEditor.DeviceSimulatorModule.dll_86930378C91DA973.mvfrm
Library\Bee\artifacts\mvdfrm\UnityEditor.DiagnosticsModule.dll_8338E12FFF25C701.mvfrm
Library\Bee\artifacts\mvdfrm\UnityEditor.dll_A234DA0EF1216487.mvfrm
Library\Bee\artifacts\mvdfrm\UnityEditor.GraphViewModule.dll_A3EB090C176694B8.mvfrm
Library\Bee\artifacts\mvdfrm\UnityEditor.PackageManagerUIModule.dll_653CB7C2578CD58A.mvfrm
Library\Bee\artifacts\mvdfrm\UnityEditor.QuickSearchModule.dll_0E48623D57FCC35A.mvfrm
Library\Bee\artifacts\mvdfrm\UnityEditor.SceneTemplateModule.dll_1B76D805F529511B.mvfrm
Library\Bee\artifacts\mvdfrm\UnityEditor.TextCoreFontEngineModule.dll_4856656B4452EB6C.mvfrm
Library\Bee\artifacts\mvdfrm\UnityEditor.TextCoreTextEngineModule.dll_903E9BDCD3D6A48A.mvfrm
Library\Bee\artifacts\mvdfrm\UnityEditor.UIBuilderModule.dll_F873B6288A1F0DEC.mvfrm
Library\Bee\artifacts\mvdfrm\UnityEditor.UIElementsModule.dll_1602D9835671722A.mvfrm
Library\Bee\artifacts\mvdfrm\UnityEditor.UIElementsSamplesModule.dll_4FB697B2845ABFE3.mvfrm
Library\Bee\artifacts\mvdfrm\UnityEditor.UIServiceModule.dll_3165C78B73565E06.mvfrm
Library\Bee\artifacts\mvdfrm\UnityEditor.UnityConnectModule.dll_B6216DAA03B99B64.mvfrm
Library\Bee\artifacts\mvdfrm\UnityEngine.AccessibilityModule.dll_4E1C439CF59F78B8.mvfrm
Library\Bee\artifacts\mvdfrm\UnityEngine.AIModule.dll_F0818FF6EDA6FA42.mvfrm
Library\Bee\artifacts\mvdfrm\UnityEngine.AndroidJNIModule.dll_944BC2569F90E100.mvfrm
Library\Bee\artifacts\mvdfrm\UnityEngine.AnimationModule.dll_72708534F1C3695E.mvfrm
Library\Bee\artifacts\mvdfrm\UnityEngine.ARModule.dll_A9F454FA4AC4590B.mvfrm
Library\Bee\artifacts\mvdfrm\UnityEngine.AssetBundleModule.dll_5231952EBA63784C.mvfrm
Library\Bee\artifacts\mvdfrm\UnityEngine.AudioModule.dll_B2AD9CCC85AE42D0.mvfrm
Library\Bee\artifacts\mvdfrm\UnityEngine.ClothModule.dll_1995F9C75FCB21B4.mvfrm
Library\Bee\artifacts\mvdfrm\UnityEngine.CoreModule.dll_F8EC2BAB266D80D9.mvfrm
Library\Bee\artifacts\mvdfrm\UnityEngine.CrashReportingModule.dll_70CDE4D512829611.mvfrm
Library\Bee\artifacts\mvdfrm\UnityEngine.DirectorModule.dll_A35144EC0F52BD36.mvfrm
Library\Bee\artifacts\mvdfrm\UnityEngine.dll_D4D920E74F94F16C.mvfrm
Library\Bee\artifacts\mvdfrm\UnityEngine.DSPGraphModule.dll_A8A2A65581B38E57.mvfrm
Library\Bee\artifacts\mvdfrm\UnityEngine.GameCenterModule.dll_BE990C7165D1D1F1.mvfrm
Library\Bee\artifacts\mvdfrm\UnityEngine.GIModule.dll_88BDD9048955E25C.mvfrm
Library\Bee\artifacts\mvdfrm\UnityEngine.GridModule.dll_D65D47993EC216D0.mvfrm
Library\Bee\artifacts\mvdfrm\UnityEngine.HotReloadModule.dll_F3B9433ACCF684E0.mvfrm
Library\Bee\artifacts\mvdfrm\UnityEngine.ImageConversionModule.dll_F831C39ABAFD6EEB.mvfrm
Library\Bee\artifacts\mvdfrm\UnityEngine.IMGUIModule.dll_EB0D3C334BDFD6B1.mvfrm
Library\Bee\artifacts\mvdfrm\UnityEngine.InputLegacyModule.dll_E376B04D52552E3D.mvfrm
Library\Bee\artifacts\mvdfrm\UnityEngine.InputModule.dll_1923647CFBE66774.mvfrm
Library\Bee\artifacts\mvdfrm\UnityEngine.JSONSerializeModule.dll_AE33CCD8F4DAD942.mvfrm
Library\Bee\artifacts\mvdfrm\UnityEngine.LocalizationModule.dll_740AAD124CBD6123.mvfrm
Library\Bee\artifacts\mvdfrm\UnityEngine.ParticleSystemModule.dll_C3E02E218094219F.mvfrm
Library\Bee\artifacts\mvdfrm\UnityEngine.PerformanceReportingModule.dll_E219927C3C9A2E98.mvfrm
Library\Bee\artifacts\mvdfrm\UnityEngine.Physics2DModule.dll_BF16752592C060F3.mvfrm
Library\Bee\artifacts\mvdfrm\UnityEngine.PhysicsModule.dll_377437F4532567A1.mvfrm
Library\Bee\artifacts\mvdfrm\UnityEngine.ProfilerModule.dll_D5977E22A8AC4443.mvfrm
Library\Bee\artifacts\mvdfrm\UnityEngine.RuntimeInitializeOnLoadManagerInitializerModule.dll_EBA8B3C420D837BC.mvfrm
Library\Bee\artifacts\mvdfrm\UnityEngine.ScreenCaptureModule.dll_C81B7A5E094705A4.mvfrm
Library\Bee\artifacts\mvdfrm\UnityEngine.SharedInternalsModule.dll_7C430270322B6A3B.mvfrm
Library\Bee\artifacts\mvdfrm\UnityEngine.SpriteMaskModule.dll_A7C57F018741676B.mvfrm
Library\Bee\artifacts\mvdfrm\UnityEngine.SpriteShapeModule.dll_6B92C2897005B056.mvfrm
Library\Bee\artifacts\mvdfrm\UnityEngine.StreamingModule.dll_27057285414B209C.mvfrm
Library\Bee\artifacts\mvdfrm\UnityEngine.SubstanceModule.dll_03B086CE8C9E1EAA.mvfrm
Library\Bee\artifacts\mvdfrm\UnityEngine.SubsystemsModule.dll_1272E56355894F7E.mvfrm
Library\Bee\artifacts\mvdfrm\UnityEngine.TerrainModule.dll_51BAB36328E3B08F.mvfrm
Library\Bee\artifacts\mvdfrm\UnityEngine.TerrainPhysicsModule.dll_C45AD6F499D71C2C.mvfrm
Library\Bee\artifacts\mvdfrm\UnityEngine.TextCoreFontEngineModule.dll_C6B5E0BE5750AA37.mvfrm
Library\Bee\artifacts\mvdfrm\UnityEngine.TextCoreTextEngineModule.dll_0E9E172FE6D46355.mvfrm
Library\Bee\artifacts\mvdfrm\UnityEngine.TextRenderingModule.dll_F15AEC68C07E8599.mvfrm
Library\Bee\artifacts\mvdfrm\UnityEngine.TilemapModule.dll_F0B71AE440A09198.mvfrm
Library\Bee\artifacts\mvdfrm\UnityEngine.TLSModule.dll_7FBDC709600F6835.mvfrm
Library\Bee\artifacts\mvdfrm\UnityEngine.UIElementsModule.dll_16B146CB58B58B75.mvfrm
Library\Bee\artifacts\mvdfrm\UnityEngine.UIElementsNativeModule.dll_AFB66C57C90545AC.mvfrm
Library\Bee\artifacts\mvdfrm\UnityEngine.UIModule.dll_EBF52E2449EDFFEE.mvfrm
Library\Bee\artifacts\mvdfrm\UnityEngine.UmbraModule.dll_2D8248E512D4EE43.mvfrm
Library\Bee\artifacts\mvdfrm\UnityEngine.UNETModule.dll_8B927394737C7652.mvfrm
Library\Bee\artifacts\mvdfrm\UnityEngine.UnityAnalyticsCommonModule.dll_7D584FC05682CCF6.mvfrm
Library\Bee\artifacts\mvdfrm\UnityEngine.UnityAnalyticsModule.dll_E37F9EEB2CBB739B.mvfrm
Library\Bee\artifacts\mvdfrm\UnityEngine.UnityConnectModule.dll_A380F1B8FE419C0F.mvfrm
Library\Bee\artifacts\mvdfrm\UnityEngine.UnityCurlModule.dll_A58D266661D75B4B.mvfrm
Library\Bee\artifacts\mvdfrm\UnityEngine.UnityTestProtocolModule.dll_0B794DA4DE561539.mvfrm
Library\Bee\artifacts\mvdfrm\UnityEngine.UnityWebRequestAssetBundleModule.dll_FAC1618CDBA852AC.mvfrm
Library\Bee\artifacts\mvdfrm\UnityEngine.UnityWebRequestAudioModule.dll_5A15E65AC304F930.mvfrm
Library\Bee\artifacts\mvdfrm\UnityEngine.UnityWebRequestModule.dll_09D0CB44C5F2096A.mvfrm
Library\Bee\artifacts\mvdfrm\UnityEngine.UnityWebRequestTextureModule.dll_01A0F82DF7B79505.mvfrm
Library\Bee\artifacts\mvdfrm\UnityEngine.UnityWebRequestWWWModule.dll_D9605C8BD6941FC1.mvfrm
Library\Bee\artifacts\mvdfrm\UnityEngine.VehiclesModule.dll_1B143E6B897C8CD1.mvfrm
Library\Bee\artifacts\mvdfrm\UnityEngine.VFXModule.dll_009C5F78367CD1A2.mvfrm
Library\Bee\artifacts\mvdfrm\UnityEngine.VideoModule.dll_D7B7213748405E75.mvfrm
Library\Bee\artifacts\mvdfrm\UnityEngine.VRModule.dll_3EC754A9EBA88566.mvfrm
Library\Bee\artifacts\mvdfrm\UnityEngine.WindModule.dll_6F3B06D3B7A3FF42.mvfrm
Library\Bee\artifacts\mvdfrm\UnityEngine.XRModule.dll_718617AE74E2D2C4.mvfrm
Library\Bee\artifacts\mvdfrm\Unity.Android.Gradle.dll_4B7EAB820CA53696.mvfrm
Library\Bee\artifacts\mvdfrm\Unity.Android.Types.dll_7CEC6DAAAA38DC06.mvfrm
Library\Bee\artifacts\mvdfrm\Unity.VisualScripting.Antlr3.Runtime.dll_44FF673C023315E0.mvfrm