﻿[
  {
    "dataType": "Emotions",
    "data": [
      {
        "valueX": 1662210827.8875105,
        "valueY": "Neutral"
      }
    ]
  },
  {
    "dataType": "Actions",
    "data": [
      {
        "valueX": 1662210827.8875105,
        "valueY": "Nothing"
      },
      {
        "valueX": 1662210874.7380672,
        "valueY": "Touch"
      },
      {
        "valueX": 1662210874.8501632,
        "valueY": "Nothing"
      },
      {
        "valueX": 1662210875.2747393,
        "valueY": "Touch"
      },
      {
        "valueX": 1662210875.3848507,
        "valueY": "Nothing"
      },
      {
        "valueX": 1662210876.4666264,
        "valueY": "Touch"
      },
      {
        "valueX": 1662210876.5732663,
        "valueY": "Nothing"
      },
      {
        "valueX": 1662210876.8892176,
        "valueY": "Touch"
      },
      {
        "valueX": 1662210876.9601462,
        "valueY": "Nothing"
      },
      {
        "valueX": 1662210895.0085833,
        "valueY": "Touch"
      },
      {
        "valueX": 1662210895.4048865,
        "valueY": "Nothing"
      },
      {
        "valueX": 1662210902.5567067,
        "valueY": "Touch"
      },
      {
        "valueX": 1662210903.0705621,
        "valueY": "Nothing"
      },
      {
        "valueX": 1662210903.493154,
        "valueY": "Touch"
      },
      {
        "valueX": 1662210903.6657624,
        "valueY": "Nothing"
      },
      {
        "valueX": 1662210903.877058,
        "valueY": "Touch"
      },
      {
        "valueX": 1662210904.2376492,
        "valueY": "Nothing"
      },
      {
        "valueX": 1662210904.8308651,
        "valueY": "Touch"
      },
      {
        "valueX": 1662210905.1726091,
        "valueY": "Nothing"
      },
      {
        "valueX": 1662210905.4984808,
        "valueY": "Touch"
      },
      {
        "valueX": 1662210905.6651368,
        "valueY": "Nothing"
      },
      {
        "valueX": 1662210905.7757444,
        "valueY": "Touch"
      },
      {
        "valueX": 1662210905.8843684,
        "valueY": "Nothing"
      },
      {
        "valueX": 1662210906.7047515,
        "valueY": "Touch"
      },
      {
        "valueX": 1662210906.8674397,
        "valueY": "Nothing"
      },
      {
        "valueX": 1662210907.3163192,
        "valueY": "Touch"
      },
      {
        "valueX": 1662210907.7488344,
        "valueY": "Nothing"
      },
      {
        "valueX": 1662210908.0623028,
        "valueY": "Touch"
      },
      {
        "valueX": 1662210908.1128948,
        "valueY": "Nothing"
      },
      {
        "valueX": 1662210908.4675348,
        "valueY": "Touch"
      },
      {
        "valueX": 1662210908.5667348,
        "valueY": "Nothing"
      },
      {
        "valueX": 1662210909.2948623,
        "valueY": "Touch"
      },
      {
        "valueX": 1662210909.4064622,
        "valueY": "Nothing"
      },
      {
        "valueX": 1662210909.4649909,
        "valueY": "Touch"
      },
      {
        "valueX": 1662210910.114254,
        "valueY": "Nothing"
      },
      {
        "valueX": 1662210910.5904136,
        "valueY": "Touch"
      },
      {
        "valueX": 1662210910.696558,
        "valueY": "Nothing"
      },
      {
        "valueX": 1662210911.1320455,
        "valueY": "Touch"
      },
      {
        "valueX": 1662210911.2505891,
        "valueY": "Nothing"
      },
      {
        "valueX": 1662210912.0114527,
        "valueY": "Touch"
      },
      {
        "valueX": 1662210912.1696773,
        "valueY": "Nothing"
      },
      {
        "valueX": 1662210912.4375165,
        "valueY": "Touch"
      },
      {
        "valueX": 1662210912.5471323,
        "valueY": "Nothing"
      },
      {
        "valueX": 1662210912.762892,
        "valueY": "Touch"
      },
      {
        "valueX": 1662210912.8695319,
        "valueY": "Nothing"
      },
      {
        "valueX": 1662210913.0962036,
        "valueY": "Touch"
      },
      {
        "valueX": 1662210913.1502678,
        "valueY": "Nothing"
      },
      {
        "valueX": 1662210913.767292,
        "valueY": "Touch"
      },
      {
        "valueX": 1662210913.8233395,
        "valueY": "Nothing"
      },
      {
        "valueX": 1662210914.0817556,
        "valueY": "Touch"
      },
      {
        "valueX": 1662210914.1422675,
        "valueY": "Nothing"
      },
      {
        "valueX": 1662210952.1541963,
        "valueY": "Touch"
      },
      {
        "valueX": 1662210952.2499244,
        "valueY": "Nothing"
      },
      {
        "valueX": 1662210952.5495083,
        "valueY": "Touch"
      },
      {
        "valueX": 1662210952.6893802,
        "valueY": "Nothing"
      },
      {
        "valueX": 1662210953.1541321,
        "valueY": "Touch"
      },
      {
        "valueX": 1662210953.8093476,
        "valueY": "Nothing"
      },
      {
        "valueX": 1662210954.3445311,
        "valueY": "Touch"
      },
      {
        "valueX": 1662210954.4844027,
        "valueY": "Nothing"
      },
      {
        "valueX": 1662210954.6758592,
        "valueY": "Touch"
      },
      {
        "valueX": 1662210954.9640348,
        "valueY": "Nothing"
      },
      {
        "valueX": 1662210955.6068509,
        "valueY": "Touch"
      },
      {
        "valueX": 1662210955.844434,
        "valueY": "Nothing"
      },
      {
        "valueX": 1662210956.055234,
        "valueY": "Touch"
      },
      {
        "valueX": 1662210956.248178,
        "valueY": "Nothing"
      },
      {
        "valueX": 1662210956.3384502,
        "valueY": "Touch"
      },
      {
        "valueX": 1662210956.47237,
        "valueY": "Nothing"
      },
      {
        "valueX": 1662210956.8329618,
        "valueY": "Touch"
      },
      {
        "valueX": 1662210956.9267058,
        "valueY": "Nothing"
      },
      {
        "valueX": 1662210957.4241931,
        "valueY": "Touch"
      },
      {
        "valueX": 1662210957.4703212,
        "valueY": "Nothing"
      },
      {
        "valueX": 1662210957.6960011,
        "valueY": "Touch"
      },
      {
        "valueX": 1662210957.7872651,
        "valueY": "Nothing"
      },
      {
        "valueX": 1662210978.5567563,
        "valueY": "Touch"
      },
      {
        "valueX": 1662210978.7323403,
        "valueY": "Nothing"
      },
      {
        "valueX": 1662210979.3106763,
        "valueY": "Touch"
      },
      {
        "valueX": 1662210979.3791242,
        "valueY": "Nothing"
      },
      {
        "valueX": 1662211005.8875105,
        "valueY": "Voice Command"
      },
      {
        "valueX": 1662210996.6716571,
        "valueY": "Nothing"
      },
      {
        "valueX": 1662211027.7619104,
        "valueY": "Touch"
      },
      {
        "valueX": 1662211028.1651587,
        "valueY": "Nothing"
      },
      {
        "valueX": 1662211028.3977821,
        "valueY": "Touch"
      },
      {
        "valueX": 1662211028.5644381,
        "valueY": "Nothing"
      },
      {
        "valueX": 1662211029.0153019,
        "valueY": "Touch"
      },
      {
        "valueX": 1662211029.2067583,
        "valueY": "Nothing"
      },
      {
        "valueX": 1662211029.2712379,
        "valueY": "Touch"
      },
      {
        "valueX": 1662211029.5817339,
        "valueY": "Nothing"
      },
      {
        "valueX": 1662211030.1685011,
        "valueY": "Touch"
      },
      {
        "valueX": 1662211030.5707572,
        "valueY": "Nothing"
      },
      {
        "valueX": 1662211050.3889213,
        "valueY": "Touch"
      },
      {
        "valueX": 1662211050.5669851,
        "valueY": "Nothing"
      },
      {
        "valueX": 1662211050.8973212,
        "valueY": "Touch"
      },
      {
        "valueX": 1662211051.1423447,
        "valueY": "Nothing"
      },
      {
        "valueX": 1662211051.3670323,
        "valueY": "Touch"
      },
      {
        "valueX": 1662211051.4285364,
        "valueY": "Nothing"
      },
      {
        "valueX": 1662211051.67604,
        "valueY": "Touch"
      },
      {
        "valueX": 1662211051.8878319,
        "valueY": "Nothing"
      },
      {
        "valueX": 1662211052.2375116,
        "valueY": "Touch"
      },
      {
        "valueX": 1662211052.3005037,
        "valueY": "Nothing"
      },
      {
        "valueX": 1662211052.5579278,
        "valueY": "Touch"
      },
      {
        "valueX": 1662211052.6288555,
        "valueY": "Nothing"
      },
      {
        "valueX": 1662211053.1030312,
        "valueY": "Touch"
      },
      {
        "valueX": 1662211053.1784239,
        "valueY": "Nothing"
      },
      {
        "valueX": 1662211053.4150152,
        "valueY": "Touch"
      },
      {
        "valueX": 1662211053.4948709,
        "valueY": "Nothing"
      },
      {
        "valueX": 1662211054.1763744,
        "valueY": "Touch"
      },
      {
        "valueX": 1662211054.3668385,
        "valueY": "Nothing"
      },
      {
        "valueX": 1662211054.5295267,
        "valueY": "Touch"
      },
      {
        "valueX": 1662211054.6927104,
        "valueY": "Nothing"
      },
      {
        "valueX": 1662211054.9193819,
        "valueY": "Touch"
      },
      {
        "valueX": 1662211055.1539903,
        "valueY": "Nothing"
      },
      {
        "valueX": 1662211055.4942462,
        "valueY": "Touch"
      },
      {
        "valueX": 1662211055.60535,
        "valueY": "Nothing"
      },
      {
        "valueX": 1662211092.3638875,
        "valueY": "Touch"
      },
      {
        "valueX": 1662211092.5369916,
        "valueY": "Nothing"
      },
      {
        "valueX": 1662211092.8822072,
        "valueY": "Touch"
      },
      {
        "valueX": 1662211092.9873593,
        "valueY": "Nothing"
      },
      {
        "valueX": 1662211093.2130394,
        "valueY": "Touch"
      },
      {
        "valueX": 1662211093.5642068,
        "valueY": "Nothing"
      },
      {
        "valueX": 1662211093.7953427,
        "valueY": "Touch"
      },
      {
        "valueX": 1662211095.0050864,
        "valueY": "Touch"
      },
      {
        "valueX": 1662211095.233742,
        "valueY": "Nothing"
      },
      {
        "valueX": 1662211095.5363019,
        "valueY": "Touch"
      },
      {
        "valueX": 1662211095.7619812,
        "valueY": "Nothing"
      },
      {
        "valueX": 1662211096.0997574,
        "valueY": "Touch"
      },
      {
        "valueX": 1662211097.2886686,
        "valueY": "Nothing"
      },
      {
        "valueX": 1662211097.4731808,
        "valueY": "Touch"
      },
      {
        "valueX": 1662211098.3744121,
        "valueY": "Nothing"
      },
      {
        "valueX": 1662211098.60406,
        "valueY": "Touch"
      },
      {
        "valueX": 1662211099.0569077,
        "valueY": "Nothing"
      },
      {
        "valueX": 1662211099.4675951,
        "valueY": "Touch"
      },
      {
        "valueX": 1662211099.6327631,
        "valueY": "Nothing"
      },
      {
        "valueX": 1662211099.9769871,
        "valueY": "Touch"
      },
      {
        "valueX": 1662211100.2051473,
        "valueY": "Nothing"
      },
      {
        "valueX": 1662211100.5454028,
        "valueY": "Touch"
      },
      {
        "valueX": 1662211100.657995,
        "valueY": "Nothing"
      },
      {
        "valueX": 1662211124.6346204,
        "valueY": "Touch"
      },
      {
        "valueX": 1662211124.7859,
        "valueY": "Nothing"
      },
      {
        "valueX": 1662211125.0358839,
        "valueY": "Touch"
      },
      {
        "valueX": 1662211125.3741555,
        "valueY": "Nothing"
      },
      {
        "valueX": 1662211125.866188,
        "valueY": "Touch"
      },
      {
        "valueX": 1662211126.0254033,
        "valueY": "Nothing"
      },
      {
        "valueX": 1662211126.4673393,
        "valueY": "Touch"
      },
      {
        "valueX": 1662211126.6374667,
        "valueY": "Nothing"
      },
      {
        "valueX": 1662211127.3973382,
        "valueY": "Touch"
      },
      {
        "valueX": 1662211127.7926505,
        "valueY": "Nothing"
      },
      {
        "valueX": 1662211127.9687302,
        "valueY": "Touch"
      },
      {
        "valueX": 1662211128.3030341,
        "valueY": "Nothing"
      },
      {
        "valueX": 1662211128.5748417,
        "valueY": "Touch"
      },
      {
        "valueX": 1662211128.8545861,
        "valueY": "Nothing"
      },
      {
        "valueX": 1662211132.6068234,
        "valueY": "Touch"
      },
      {
        "valueX": 1662211133.7173667,
        "valueY": "Nothing"
      },
      {
        "valueX": 1662211134.1543427,
        "valueY": "Touch"
      },
      {
        "valueX": 1662211134.2738783,
        "valueY": "Nothing"
      },
      {
        "valueX": 1662211134.595782,
        "valueY": "Touch"
      },
      {
        "valueX": 1662211134.9578619,
        "valueY": "Nothing"
      },
      {
        "valueX": 1662211135.46527,
        "valueY": "Touch"
      },
      {
        "valueX": 1662211136.5644052,
        "valueY": "Nothing"
      },
      {
        "valueX": 1662211136.7900848,
        "valueY": "Touch"
      },
      {
        "valueX": 1662211136.9721167,
        "valueY": "Nothing"
      },
      {
        "valueX": 1662211159.4344547,
        "valueY": "Touch"
      },
      {
        "valueX": 1662211159.9101191,
        "valueY": "Nothing"
      },
      {
        "valueX": 1662211160.7944863,
        "valueY": "Touch"
      },
      {
        "valueX": 1662211160.9859424,
        "valueY": "Nothing"
      },
      {
        "valueX": 1662211161.443254,
        "valueY": "Touch"
      },
      {
        "valueX": 1662211161.5459259,
        "valueY": "Nothing"
      },
      {
        "valueX": 1662211162.2130454,
        "valueY": "Touch"
      },
      {
        "valueX": 1662211162.8325491,
        "valueY": "Nothing"
      },
      {
        "valueX": 1662211162.9332371,
        "valueY": "Touch"
      },
      {
        "valueX": 1662211162.9848211,
        "valueY": "Nothing"
      },
      {
        "valueX": 1662211163.0294611,
        "valueY": "Touch"
      },
      {
        "valueX": 1662211163.1708207,
        "valueY": "Nothing"
      },
      {
        "valueX": 1662211163.6782289,
        "valueY": "Touch"
      },
      {
        "valueX": 1662211163.7878447,
        "valueY": "Nothing"
      },
      {
        "valueX": 1662211164.0016203,
        "valueY": "Touch"
      },
      {
        "valueX": 1662211164.0983403,
        "valueY": "Nothing"
      },
      {
        "valueX": 1662211164.5353165,
        "valueY": "Touch"
      },
      {
        "valueX": 1662211164.6345158,
        "valueY": "Nothing"
      },
      {
        "valueX": 1662211164.8919399,
        "valueY": "Touch"
      },
      {
        "valueX": 1662211164.993124,
        "valueY": "Nothing"
      },
      {
        "valueX": 1662211166.1547554,
        "valueY": "Touch"
      },
      {
        "valueX": 1662211166.5575068,
        "valueY": "Nothing"
      },
      {
        "valueX": 1662211168.0658422,
        "valueY": "Touch"
      },
      {
        "valueX": 1662211168.2057135,
        "valueY": "Nothing"
      },
      {
        "valueX": 1662211168.4095697,
        "valueY": "Touch"
      },
      {
        "valueX": 1662211168.5236497,
        "valueY": "Nothing"
      },
      {
        "valueX": 1662211169.3623855,
        "valueY": "Touch"
      },
      {
        "valueX": 1662211169.9159207,
        "valueY": "Nothing"
      },
      {
        "valueX": 1662211170.7576323,
        "valueY": "Touch"
      },
      {
        "valueX": 1662211171.007616,
        "valueY": "Nothing"
      },
      {
        "valueX": 1662211171.1539364,
        "valueY": "Touch"
      },
      {
        "valueX": 1662211171.3052163,
        "valueY": "Nothing"
      },
      {
        "valueX": 1662211172.1226246,
        "valueY": "Touch"
      },
      {
        "valueX": 1662211172.2664633,
        "valueY": "Nothing"
      },
      {
        "valueX": 1662211172.7505589,
        "valueY": "Touch"
      },
      {
        "valueX": 1662211173.1364467,
        "valueY": "Nothing"
      },
      {
        "valueX": 1662211173.1870389,
        "valueY": "Touch"
      },
      {
        "valueX": 1662211173.5054708,
        "valueY": "Nothing"
      },
      {
        "valueX": 1662211173.6979184,
        "valueY": "Touch"
      },
      {
        "valueX": 1662211173.8506866,
        "valueY": "Nothing"
      },
      {
        "valueX": 1662211174.0089107,
        "valueY": "Touch"
      },
      {
        "valueX": 1662211174.1562223,
        "valueY": "Nothing"
      },
      {
        "valueX": 1662211174.9909894,
        "valueY": "Touch"
      },
      {
        "valueX": 1662211175.0371184,
        "valueY": "Nothing"
      },
      {
        "valueX": 1662211175.3262858,
        "valueY": "Touch"
      },
      {
        "valueX": 1662211175.4383814,
        "valueY": "Nothing"
      },
      {
        "valueX": 1662211176.9437406,
        "valueY": "Touch"
      },
      {
        "valueX": 1662211176.9898684,
        "valueY": "Nothing"
      },
      {
        "valueX": 1662211177.9297879,
        "valueY": "Touch"
      },
      {
        "valueX": 1662211178.07462,
        "valueY": "Nothing"
      },
      {
        "valueX": 1662211178.7223954,
        "valueY": "Touch"
      },
      {
        "valueX": 1662211178.7685232,
        "valueY": "Nothing"
      },
      {
        "valueX": 1662211179.8289711,
        "valueY": "Touch"
      },
      {
        "valueX": 1662211179.9331307,
        "valueY": "Nothing"
      },
      {
        "valueX": 1662211277.4928,
        "valueY": "Touch"
      },
      {
        "valueX": 1662211277.5964637,
        "valueY": "Nothing"
      },
      {
        "valueX": 1662211278.2060471,
        "valueY": "Touch"
      },
      {
        "valueX": 1662211278.3538556,
        "valueY": "Nothing"
      },
      {
        "valueX": 1662211298.9274271,
        "valueY": "Touch"
      },
      {
        "valueX": 1662211299.0682907,
        "valueY": "Nothing"
      },
      {
        "valueX": 1662211299.4760025,
        "valueY": "Touch"
      },
      {
        "valueX": 1662211299.630259,
        "valueY": "Nothing"
      },
      {
        "valueX": 1662211299.8043544,
        "valueY": "Touch"
      },
      {
        "valueX": 1662211299.93629,
        "valueY": "Nothing"
      },
      {
        "valueX": 1662211300.39261,
        "valueY": "Touch"
      },
      {
        "valueX": 1662211300.8037937,
        "valueY": "Nothing"
      },
      {
        "valueX": 1662211301.1996017,
        "valueY": "Touch"
      },
      {
        "valueX": 1662211301.3851058,
        "valueY": "Nothing"
      },
      {
        "valueX": 1662211329.4279363,
        "valueY": "Touch"
      },
      {
        "valueX": 1662211329.5980644,
        "valueY": "Nothing"
      },
      {
        "valueX": 1662211329.9536963,
        "valueY": "Touch"
      },
      {
        "valueX": 1662211330.0767043,
        "valueY": "Nothing"
      },
      {
        "valueX": 1662211330.55088,
        "valueY": "Touch"
      },
      {
        "valueX": 1662211330.7884636,
        "valueY": "Nothing"
      },
      {
        "valueX": 1662211330.9040315,
        "valueY": "Touch"
      },
      {
        "valueX": 1662211331.1669116,
        "valueY": "Nothing"
      },
      {
        "valueX": 1662211331.6400952,
        "valueY": "Touch"
      },
      {
        "valueX": 1662211332.1931348,
        "valueY": "Nothing"
      },
      {
        "valueX": 1662211332.8667023,
        "valueY": "Touch"
      },
      {
        "valueX": 1662211333.0303824,
        "valueY": "Nothing"
      },
      {
        "valueX": 1662211333.0958543,
        "valueY": "Touch"
      },
      {
        "valueX": 1662211333.2630064,
        "valueY": "Nothing"
      },
      {
        "valueX": 1662211333.8175335,
        "valueY": "Touch"
      },
      {
        "valueX": 1662211333.9266536,
        "valueY": "Nothing"
      },
      {
        "valueX": 1662211334.3120456,
        "valueY": "Touch"
      },
      {
        "valueX": 1662211334.4757257,
        "valueY": "Nothing"
      },
      {
        "valueX": 1662211351.4255235,
        "valueY": "Touch"
      },
      {
        "valueX": 1662211351.4751229,
        "valueY": "Nothing"
      },
      {
        "valueX": 1662211351.8783715,
        "valueY": "Touch"
      },
      {
        "valueX": 1662211352.0256832,
        "valueY": "Nothing"
      },
      {
        "valueX": 1662211352.3163388,
        "valueY": "Touch"
      },
      {
        "valueX": 1662211352.4691064,
        "valueY": "Nothing"
      },
      {
        "valueX": 1662211352.7300024,
        "valueY": "Touch"
      },
      {
        "valueX": 1662211353.0662904,
        "valueY": "Nothing"
      },
      {
        "valueX": 1662211353.2031863,
        "valueY": "Touch"
      },
      {
        "valueX": 1662211353.390178,
        "valueY": "Nothing"
      },
      {
        "valueX": 1662211353.9293299,
        "valueY": "Touch"
      },
      {
        "valueX": 1662211354.0245616,
        "valueY": "Nothing"
      },
      {
        "valueX": 1662211354.4124336,
        "valueY": "Touch"
      },
      {
        "valueX": 1662211354.5185769,
        "valueY": "Nothing"
      },
      {
        "valueX": 1662211354.7760012,
        "valueY": "Touch"
      },
      {
        "valueX": 1662211354.9337292,
        "valueY": "Nothing"
      },
      {
        "valueX": 1662211375.8875105,
        "valueY": "Pointing & Voice"
      },
      {
        "valueX": 1662211374.0877492,
        "valueY": "Nothing"
      },
      {
        "valueX": 1662211404.3189316,
        "valueY": "Touch"
      },
      {
        "valueX": 1662211404.4488831,
        "valueY": "Nothing"
      },
      {
        "valueX": 1662211404.9185948,
        "valueY": "Touch"
      },
      {
        "valueX": 1662211405.0827711,
        "valueY": "Nothing"
      },
      {
        "valueX": 1662211405.3655,
        "valueY": "Touch"
      },
      {
        "valueX": 1662211405.5296667,
        "valueY": "Nothing"
      },
      {
        "valueX": 1662211405.9765623,
        "valueY": "Touch"
      },
      {
        "valueX": 1662211406.1571062,
        "valueY": "Nothing"
      },
      {
        "valueX": 1662211406.738914,
        "valueY": "Touch"
      },
      {
        "valueX": 1662211406.9095383,
        "valueY": "Nothing"
      },
      {
        "valueX": 1662211407.4308333,
        "valueY": "Touch"
      },
      {
        "valueX": 1662211407.5141611,
        "valueY": "Nothing"
      }
    ]
  },
  {
    "dataType": "Driving",
    "data": [
      {
        "valueX": 1662210827.8875105,
        "valueY": "Nothing"
      },
      {
        "valueX": 1662210993.3127475,
        "valueY": "Decelerating"
      },
      {
        "valueX": 1662210995.3279943,
        "valueY": "Nothing"
      },
      {
        "valueX": 1662211045.311868,
        "valueY": "Accelerating"
      },
      {
        "valueX": 1662211047.2799954,
        "valueY": "Nothing"
      },
      {
        "valueX": 1662211108.0225983,
        "valueY": "Second Passenger Enters"
      },
      {
        "valueX": 1662211116.9381928,
        "valueY": "Accelerating"
      },
      {
        "valueX": 1662211118.9350874,
        "valueY": "Nothing"
      },
      {
        "valueX": 1662211314.9794652,
        "valueY": "Emergency Break: Road Crossing"
      },
      {
        "valueX": 1662211318.4921355,
        "valueY": "Accelerating"
      },
      {
        "valueX": 1662211320.512342,
        "valueY": "Nothing"
      },
      {
        "valueX": 1662211345.0057993,
        "valueY": "Accelerating"
      },
      {
        "valueX": 1662211347.0071576,
        "valueY": "Nothing"
      },
      {
        "valueX": 1662211388.4018044,
        "valueY": "Decelerating"
      },
      {
        "valueX": 1662211390.4021716,
        "valueY": "Nothing"
      }
    ]
  },
  {
    "dataType": "Activity",
    "data": [
      {
        "valueX": 1662210827.8875105,
        "valueY": "Nothing"
      }
    ]
  }
]